{
  "orderby": [
    "lungs",
    "mediastinum",
    "pleura",
    "bone",
    "other"
  ],
  "lungs": {
    "description": {
      "fr" : "Parenchyme pulmonaire",
      "eng" : "Lungs"
    },
    "orderby": [
      "opacity"
    ],
    "opacity": {
      "description": {
        "fr" : "Opacité",
        "eng" : "Opacity"
      },
      "children": [
        "cavity",
        "consolidation",
        "nodule",
        "fibrosis"
      ],
      "has_child": true
    }
  },
  "other": {
    "description": {
      "fr" : "Autres résultats",
      "eng" : "Other Results"
    },
    "orderby": [
      "tuberculosis"
    ],
    "tuberculosis": {
      "has_child": false
    }
  },
  "pleura": {
    "description": {
      "fr" : "Plèvre",
      "eng" : "Pleura"
    },
    "orderby": [
      "peffusion",
      "bluntedcp",
      "pneumothorax"
    ],
    "peffusion": {
      "has_child": false
    },
    "bluntedcp": {
      "has_child": false
    },
    "pneumothorax": {
      "has_child": false
    }
  },
  "bone": {
    "description": {
      "fr" : "Os",
      "eng" : "Bone"
    },
    "orderby": []
  },
  "mediastinum": {
    "description": {
      "fr" : "Médiastin",
      "eng" : "Mediastinum"
    },
    "orderby": [
      "cardiomegaly",
      "hilarlymphadenopathy"
    ],
    "cardiomegaly": {
      "has_child": false
    },
    "hilarlymphadenopathy": {
      "has_child": false
    }
  }
}